%YAML 1.1
%TAG !u! tag:unity3d.com,2011:
--- !u!114 &11400000
MonoBehaviour:
  m_ObjectHideFlags: 0
  m_PrefabParentObject: {fileID: 0}
  m_PrefabInternal: {fileID: 0}
  m_GameObject: {fileID: 0}
  m_Enabled: 1
  m_EditorHideFlags: 0
  m_Script: {fileID: 11500000, guid: fba490e9d0ab9c949bf500b1777e8457, type: 3}
  m_Name: BGM_Data
  m_EditorClassIdentifier: 
  BGMsource:
  - BGMname: menuBGM
    audioClip: {fileID: 8300000, guid: 3d09069c55afe0e4ba9583e8685b1c61, type: 3}
  - BGMname: stageBGM
    audioClip: {fileID: 8300000, guid: 7bd5e8c4a6b115c46a1ad1b8406580ab, type: 3}
