%YAML 1.1
%TAG !u! tag:unity3d.com,2011:
--- !u!1045 &1
EditorBuildSettings:
  m_ObjectHideFlags: 0
  serializedVersion: 2
  m_Scenes:
  - enabled: 1
    path: Assets/Scene/GameScene.unity
    guid: 3e6e0b64ed303e342ac9280aec9353ee
  - enabled: 1
    path: Assets/Scene/ClearScene.unity
    guid: e829d0f2460f6204589f6aef6cfdd007
  - enabled: 1
    path: Assets/Scene/GameOverScene.unity
    guid: 34a89a1d7780247718f8842ec27de0a1
